2007/LCD_CTRL.vcd
$date
	Tue Jul 08 11:33:58 2025
$end
$version
	ModelSim Version 10.5b
$end
$timescale
	10ps
$end

$scope module test $end
$var parameter 32 ! IMAGE_N_PAT $end
$var parameter 32 " CMD_N_PAT $end
$var parameter 32 # OUT_LENGTH $end
$var parameter 32 $ t_reset $end
$var reg 1 % clk $end
$var reg 1 & reset $end
$var reg 8 ' datain [7:0] $end
$var reg 3 ( cmd [2:0] $end
$var reg 1 ) cmd_valid $end
$var wire 1 * dataout [7] $end
$var wire 1 + dataout [6] $end
$var wire 1 , dataout [5] $end
$var wire 1 - dataout [4] $end
$var wire 1 . dataout [3] $end
$var wire 1 / dataout [2] $end
$var wire 1 0 dataout [1] $end
$var wire 1 1 dataout [0] $end
$var wire 1 2 output_valid $end
$var wire 1 3 busy $end
$var reg 8 4 out_temp [7:0] $end
$var reg 1 5 stop $end
$var integer 32 6 i $end
$var integer 32 7 j $end
$var integer 32 8 out_f $end
$var integer 32 9 err $end
$var integer 32 : pattern_num $end
$var reg 1 ; over $end

$scope module top $end
$var parameter 32 < Reflash $end
$var parameter 32 = LoadData $end
$var parameter 32 > Right $end
$var parameter 32 ? Left $end
$var parameter 32 @ Up $end
$var parameter 32 A Down $end
$var wire 1 B clk $end
$var wire 1 C reset $end
$var wire 1 D datain [7] $end
$var wire 1 E datain [6] $end
$var wire 1 F datain [5] $end
$var wire 1 G datain [4] $end
$var wire 1 H datain [3] $end
$var wire 1 I datain [2] $end
$var wire 1 J datain [1] $end
$var wire 1 K datain [0] $end
$var wire 1 L cmd [2] $end
$var wire 1 M cmd [1] $end
$var wire 1 N cmd [0] $end
$var wire 1 O cmd_valid $end
$var reg 8 P dataout [7:0] $end
$var reg 1 Q output_valid $end
$var reg 1 R busy $end
$var reg 3 S state [2:0] $end
$var reg 4 T count [3:0] $end
$var reg 3 U row [2:0] $end
$var reg 3 V col [2:0] $end
$upscope $end
$upscope $end
$enddefinitions $end
#0
$dumpvars
0%
0&
bx '
bx (
0)
bx 4
05
0;
bx P
xQ
xR
bx S
bx T
bx U
bx V
b100100 !
b11110 "
b100001110 #
b101000 $
b0 <
b1 =
b10 >
b11 ?
b100 @
b101 A
bx 6
bx 7
b10 8
b0 9
b0 :
x1
x0
x/
x.
x-
x,
x+
x*
x2
x3
0O
xN
xM
xL
xK
xJ
xI
xH
xG
xF
xE
xD
0C
0B
$end
#1000
1%
1B
b1100110 4
0R
03
#2000
0%
0B
1&
1C
b0 U
b0 V
b0 T
0Q
02
#3000
1%
1B
#4000
0%
0B
#5000
1%
1B
#6000
0&
0%
0C
0B
b0 6
b1 (
1)
b0 7
1N
0M
0L
1O
#7000
1%
1B
1R
b1 S
13
#8000
0%
0B
b100000 '
bz (
0)
b1 7
zN
zM
zL
0K
0J
0I
0H
0G
1F
0E
0D
0O
#9000
1%
1B
b1 V
#10000
0%
0B
b1010111 '
b10 7
1K
1J
1I
1G
0F
1E
#11000
1%
1B
b10 V
#12000
0%
0B
b110000 '
b11 7
0K
0J
0I
1F
0E
#13000
1%
1B
b11 V
#14000
0%
0B
b11101011 '
b100 7
1K
1J
1H
0G
1E
1D
#15000
1%
1B
b100 V
#16000
0%
0B
b10101111 '
b101 7
1I
0E
#17000
1%
1B
b101 V
#18000
0%
0B
b11101100 '
b110 7
0K
0J
1E
#19000
1%
1B
b1 U
b0 V
#20000
0%
0B
b1001001 '
b111 7
1K
0I
0F
0D
#21000
1%
1B
b1 V
#22000
0%
0B
b10010011 '
b1000 7
1J
0H
1G
0E
1D
#23000
1%
1B
b10 V
#24000
0%
0B
b100010 '
b1001 7
0K
0G
1F
0D
#25000
1%
1B
b11 V
#26000
0%
0B
b1100111 '
b1010 7
1K
1I
1E
#27000
1%
1B
b100 V
#28000
0%
0B
b10100000 '
b1011 7
0K
0J
0I
0E
1D
#29000
1%
1B
b101 V
#30000
0%
0B
b101 '
b1100 7
1K
1I
0F
0D
#31000
1%
1B
b10 U
b0 V
#32000
0%
0B
b1000100 '
b1101 7
0K
1E
#33000
1%
1B
b1 V
#34000
0%
0B
b1100010 '
b1110 7
1J
0I
1F
#35000
1%
1B
b10 V
#36000
0%
0B
b1100110 '
b1111 7
1I
#37000
1%
1B
b11 V
#38000
0%
0B
b11001100 '
b10000 7
0J
1H
0F
1D
#39000
1%
1B
b100 V
#40000
0%
0B
b1110110 '
b10001 7
1J
0H
1G
1F
0D
#41000
1%
1B
b101 V
#42000
0%
0B
b10010111 '
b10010 7
1K
0F
0E
1D
#43000
1%
1B
b11 U
b0 V
#44000
0%
0B
b101000 '
b10011 7
0K
0J
0I
1H
0G
1F
0D
#45000
1%
1B
b1 V
#46000
0%
0B
b1001 '
b10100 7
1K
0F
#47000
1%
1B
b10 V
#48000
0%
0B
b11111111 '
b10101 7
1J
1I
1G
1F
1E
1D
#49000
1%
1B
b11 V
#50000
0%
0B
b1000000 '
b10110 7
0K
0J
0I
0H
0G
0F
0D
#51000
1%
1B
b100 V
#52000
0%
0B
b11000 '
b10111 7
1H
1G
0E
#53000
1%
1B
b101 V
#54000
0%
0B
b10000000 '
b11000 7
0H
0G
1D
#55000
1%
1B
b100 U
b0 V
#56000
0%
0B
b11110000 '
b11001 7
1G
1F
1E
#57000
1%
1B
b1 V
#58000
0%
0B
b11101001 '
b11010 7
1K
1H
0G
#59000
1%
1B
b10 V
#60000
0%
0B
b11101010 '
b11011 7
0K
1J
#61000
1%
1B
b11 V
#62000
0%
0B
b10000111 '
b11100 7
1K
1I
0H
0F
0E
#63000
1%
1B
b100 V
#64000
0%
0B
b11011101 '
b11101 7
0J
1H
1G
1E
#65000
1%
1B
b101 V
#66000
0%
0B
b11101101 '
b11110 7
0G
1F
#67000
1%
1B
b101 U
b0 V
#68000
0%
0B
b11010100 '
b11111 7
0K
0H
1G
0F
#69000
1%
1B
b1 V
#70000
0%
0B
b11010011 '
b100000 7
1K
1J
0I
#71000
1%
1B
b10 V
#72000
0%
0B
b10111011 '
b100001 7
1H
1F
0E
#73000
1%
1B
b11 V
#74000
0%
0B
b11110100 '
b100010 7
0K
0J
1I
0H
1E
#75000
1%
1B
b100 V
#76000
0%
0B
b1110111 '
b100011 7
1K
1J
0D
#77000
1%
1B
b101 V
#78000
0%
0B
b1010010 '
b100100 7
0K
0I
0F
#79000
1%
1B
b110 U
b0 V
#80000
0%
0B
bx '
b100101 7
b1 6
bz '
zK
zJ
zI
zH
zG
zF
zE
zD
#81000
1%
1B
b0 S
1Q
b10 U
b10 V
12
b1100110 P
01
10
1/
0.
0-
1,
1+
0*
#82000
0%
0B
#83000
1%
1B
b1 :
b11 V
b1 T
b11001100 P
00
1.
0,
1*
#84000
0%
0B
#85000
1%
1B
b11001100 4
b10 :
b100 V
b10 T
b1110110 P
10
0.
1-
1,
0*
#86000
0%
0B
#87000
1%
1B
b1110110 4
b11 :
b11 U
b10 V
b11 T
b11111111 P
11
1.
1*
#88000
0%
0B
#89000
1%
1B
b11111111 4
b100 :
b11 V
b100 T
b1000000 P
01
00
0/
0.
0-
0,
0*
#90000
0%
0B
#91000
1%
1B
b1000000 4
b101 :
b100 V
b101 T
b11000 P
1.
1-
0+
#92000
0%
0B
#93000
1%
1B
b11000 4
b110 :
b100 U
b10 V
b110 T
b11101010 P
10
0-
1,
1+
1*
#94000
0%
0B
#95000
1%
1B
b11101010 4
b111 :
b11 V
b111 T
b10000111 P
11
1/
0.
0,
0+
#96000
0%
0B
#97000
1%
1B
b10000111 4
b1000 :
b100 V
b1000 T
b11011101 P
00
1.
1-
1+
#98000
0%
0B
#99000
1%
1B
b11011101 4
b1001 :
b10 U
b10 V
b0 T
0Q
0R
02
03
#100000
0%
0B
b1 (
1)
b0 7
1N
0M
0L
1O
#101000
1%
1B
b1100110 4
1R
b1 S
b0 U
b0 V
13
#102000
0%
0B
b100000 '
bz (
0)
b1 7
zN
zM
zL
0K
0J
0I
0H
0G
1F
0E
0D
0O
#103000
1%
1B
b1 V
#104000
0%
0B
b1010111 '
b10 7
1K
1J
1I
1G
0F
1E
#105000
1%
1B
b10 V
#106000
0%
0B
b110000 '
b11 7
0K
0J
0I
1F
0E
#107000
1%
1B
b11 V
#108000
0%
0B
b11101011 '
b100 7
1K
1J
1H
0G
1E
1D
#109000
1%
1B
b100 V
#110000
0%
0B
b10101111 '
b101 7
1I
0E
#111000
1%
1B
b101 V
#112000
0%
0B
b11101100 '
b110 7
0K
0J
1E
#113000
1%
1B
b1 U
b0 V
#114000
0%
0B
b1001001 '
b111 7
1K
0I
0F
0D
#115000
1%
1B
b1 V
#116000
0%
0B
b10010011 '
b1000 7
1J
0H
1G
0E
1D
#117000
1%
1B
b10 V
#118000
0%
0B
b100010 '
b1001 7
0K
0G
1F
0D
#119000
1%
1B
b11 V
#120000
0%
0B
b1100111 '
b1010 7
1K
1I
1E
#121000
1%
1B
b100 V
#122000
0%
0B
b10100000 '
b1011 7
0K
0J
0I
0E
1D
#123000
1%
1B
b101 V
#124000
0%
0B
b101 '
b1100 7
1K
1I
0F
0D
#125000
1%
1B
b10 U
b0 V
#126000
0%
0B
b1000100 '
b1101 7
0K
1E
#127000
1%
1B
b1 V
#128000
0%
0B
b1100010 '
b1110 7
1J
0I
1F
#129000
1%
1B
b10 V
#130000
0%
0B
b1100110 '
b1111 7
1I
#131000
1%
1B
b11 V
#132000
0%
0B
b11001100 '
b10000 7
0J
1H
0F
1D
#133000
1%
1B
b100 V
#134000
0%
0B
b1110110 '
b10001 7
1J
0H
1G
1F
0D
#135000
1%
1B
b101 V
#136000
0%
0B
b10010111 '
b10010 7
1K
0F
0E
1D
#137000
1%
1B
b11 U
b0 V
#138000
0%
0B
b101000 '
b10011 7
0K
0J
0I
1H
0G
1F
0D
#139000
1%
1B
b1 V
#140000
0%
0B
b1001 '
b10100 7
1K
0F
#141000
1%
1B
b10 V
#142000
0%
0B
b11111111 '
b10101 7
1J
1I
1G
1F
1E
1D
#143000
1%
1B
b11 V
#144000
0%
0B
b1000000 '
b10110 7
0K
0J
0I
0H
0G
0F
0D
#145000
1%
1B
b100 V
#146000
0%
0B
b11000 '
b10111 7
1H
1G
0E
#147000
1%
1B
b101 V
#148000
0%
0B
b10000000 '
b11000 7
0H
0G
1D
#149000
1%
1B
b100 U
b0 V
#150000
0%
0B
b11110000 '
b11001 7
1G
1F
1E
#151000
1%
1B
b1 V
#152000
0%
0B
b11101001 '
b11010 7
1K
1H
0G
#153000
1%
1B
b10 V
#154000
0%
0B
b11101010 '
b11011 7
0K
1J
#155000
1%
1B
b11 V
#156000
0%
0B
b10000111 '
b11100 7
1K
1I
0H
0F
0E
#157000
1%
1B
b100 V
#158000
0%
0B
b11011101 '
b11101 7
0J
1H
1G
1E
#159000
1%
1B
b101 V
#160000
0%
0B
b11101101 '
b11110 7
0G
1F
#161000
1%
1B
b101 U
b0 V
#162000
0%
0B
b11010100 '
b11111 7
0K
0H
1G
0F
#163000
1%
1B
b1 V
#164000
0%
0B
b11010011 '
b100000 7
1K
1J
0I
#165000
1%
1B
b10 V
#166000
0%
0B
b10111011 '
b100001 7
1H
1F
0E
#167000
1%
1B
b11 V
#168000
0%
0B
b11110100 '
b100010 7
0K
0J
1I
0H
1E
#169000
1%
1B
b100 V
#170000
0%
0B
b1110111 '
b100011 7
1K
1J
0D
#171000
1%
1B
b101 V
#172000
0%
0B
b1010010 '
b100100 7
0K
0I
0F
#173000
1%
1B
b110 U
b0 V
#174000
0%
0B
bx '
b100101 7
b10 6
bz '
zK
zJ
zI
zH
zG
zF
zE
zD
#175000
1%
1B
b0 S
1Q
b10 U
b10 V
12
b1100110 P
01
10
0.
0-
1,
0*
#176000
0%
0B
#177000
1%
1B
b1010 :
b11 V
b1 T
b11001100 P
00
1.
0,
1*
#178000
0%
0B
#179000
1%
1B
b11001100 4
b1011 :
b100 V
b10 T
b1110110 P
10
0.
1-
1,
0*
#180000
0%
0B
#181000
1%
1B
b1110110 4
b1100 :
b11 U
b10 V
b11 T
b11111111 P
11
1.
1*
#182000
0%
0B
#183000
1%
1B
b11111111 4
b1101 :
b11 V
b100 T
b1000000 P
01
00
0/
0.
0-
0,
0*
#184000
0%
0B
#185000
1%
1B
b1000000 4
b1110 :
b100 V
b101 T
b11000 P
1.
1-
0+
#186000
0%
0B
#187000
1%
1B
b11000 4
b1111 :
b100 U
b10 V
b110 T
b11101010 P
10
0-
1,
1+
1*
#188000
0%
0B
#189000
1%
1B
b11101010 4
b10000 :
b11 V
b111 T
b10000111 P
11
1/
0.
0,
0+
#190000
0%
0B
#191000
1%
1B
b10000111 4
b10001 :
b100 V
b1000 T
b11011101 P
00
1.
1-
1+
#192000
0%
0B
#193000
1%
1B
b11011101 4
b10010 :
b10 U
b10 V
b0 T
0Q
0R
02
03
#194000
0%
0B
b10 (
1)
0N
1M
0L
1O
#195000
1%
1B
b11001100 4
1R
b10 S
13
#196000
0%
0B
0)
b11 6
bz (
0O
zN
zM
zL
#197000
1%
1B
b11 V
b0 S
1Q
12
b11001100 P
01
0-
#198000
0%
0B
#199000
1%
1B
b10011 :
b100 V
b1 T
b1110110 P
10
0.
1-
1,
0*
#200000
0%
0B
#201000
1%
1B
b1110110 4
b10100 :
b101 V
b10 T
b10010111 P
11
0,
0+
1*
#202000
0%
0B
#203000
1%
1B
b10010111 4
b10101 :
b11 U
b11 V
b11 T
b1000000 P
01
00
0/
0-
1+
0*
#204000
0%
0B
#205000
1%
1B
b1000000 4
b10110 :
b100 V
b100 T
b11000 P
1.
1-
0+
#206000
0%
0B
#207000
1%
1B
b11000 4
b10111 :
b101 V
b101 T
b10000000 P
0.
0-
1*
#208000
0%
0B
#209000
1%
1B
b10000000 4
b11000 :
b100 U
b11 V
b110 T
b10000111 P
11
10
1/
#210000
0%
0B
#211000
1%
1B
b10000111 4
b11001 :
b100 V
b111 T
b11011101 P
00
1.
1-
1+
#212000
0%
0B
#213000
1%
1B
b11011101 4
b11010 :
b101 V
b1000 T
b11101101 P
0-
1,
#214000
0%
0B
#215000
1%
1B
b11101101 4
b11011 :
b10 U
b11 V
b0 T
0Q
0R
02
03
#216000
0%
0B
b10 (
1)
0N
1M
0L
1O
#217000
1%
1B
b11001100 4
1R
b10 S
13
#218000
0%
0B
0)
b100 6
bz (
0O
zN
zM
zL
#219000
1%
1B
b0 S
1Q
12
b11001100 P
01
0,
#220000
0%
0B
#221000
1%
1B
b11100 :
b100 V
b1 T
b1110110 P
10
0.
1-
1,
0*
#222000
0%
0B
#223000
1%
1B
b1110110 4
b11101 :
b101 V
b10 T
b10010111 P
11
0,
0+
1*
#224000
0%
0B
#225000
1%
1B
b10010111 4
b11110 :
b11 U
b11 V
b11 T
b1000000 P
01
00
0/
0-
1+
0*
#226000
0%
0B
#227000
1%
1B
b1000000 4
b11111 :
b100 V
b100 T
b11000 P
1.
1-
0+
#228000
0%
0B
#229000
1%
1B
b11000 4
b100000 :
b101 V
b101 T
b10000000 P
0.
0-
1*
#230000
0%
0B
#231000
1%
1B
b10000000 4
b100001 :
b100 U
b11 V
b110 T
b10000111 P
11
10
1/
#232000
0%
0B
#233000
1%
1B
b10000111 4
b100010 :
b100 V
b111 T
b11011101 P
00
1.
1-
1+
#234000
0%
0B
#235000
1%
1B
b11011101 4
b100011 :
b101 V
b1000 T
b11101101 P
0-
1,
#236000
0%
0B
#237000
1%
1B
b11101101 4
b100100 :
b10 U
b11 V
b0 T
0Q
0R
02
03
#238000
0%
0B
b101 (
1)
1N
0M
1L
1O
#239000
1%
1B
b1000000 4
1R
b101 S
13
#240000
0%
0B
0)
b101 6
bz (
0O
zN
zM
zL
#241000
1%
1B
b11 U
b0 S
1Q
12
b1000000 P
01
0/
0.
0,
0*
#242000
0%
0B
#243000
1%
1B
b100101 :
b100 V
b1 T
b11000 P
1.
1-
0+
#244000
0%
0B
#245000
1%
1B
b11000 4
b100110 :
b101 V
b10 T
b10000000 P
0.
0-
1*
#246000
0%
0B
#247000
1%
1B
b10000000 4
b100111 :
b100 U
b11 V
b11 T
b10000111 P
11
10
1/
#248000
0%
0B
#249000
1%
1B
b10000111 4
b101000 :
b100 V
b100 T
b11011101 P
00
1.
1-
1+
#250000
0%
0B
#251000
1%
1B
b11011101 4
b101001 :
b101 V
b101 T
b11101101 P
0-
1,
#252000
0%
0B
#253000
1%
1B
b11101101 4
b101010 :
b101 U
b11 V
b110 T
b11110100 P
01
0.
1-
#254000
0%
0B
#255000
1%
1B
b11110100 4
b101011 :
b100 V
b111 T
b1110111 P
11
10
0*
#256000
0%
0B
#257000
1%
1B
b1110111 4
b101100 :
b101 V
b1000 T
b1010010 P
01
0/
0,
#258000
0%
0B
#259000
1%
1B
b1010010 4
b101101 :
b11 U
b11 V
b0 T
0Q
0R
02
03
#260000
0%
0B
b101 (
1)
1N
0M
1L
1O
#261000
1%
1B
b1000000 4
1R
b101 S
13
#262000
0%
0B
0)
b110 6
bz (
0O
zN
zM
zL
#263000
1%
1B
b0 S
1Q
12
b1000000 P
00
0-
#264000
0%
0B
#265000
1%
1B
b101110 :
b100 V
b1 T
b11000 P
1.
1-
0+
#266000
0%
0B
#267000
1%
1B
b11000 4
b101111 :
b101 V
b10 T
b10000000 P
0.
0-
1*
#268000
0%
0B
#269000
1%
1B
b10000000 4
b110000 :
b100 U
b11 V
b11 T
b10000111 P
11
10
1/
#270000
0%
0B
#271000
1%
1B
b10000111 4
b110001 :
b100 V
b100 T
b11011101 P
00
1.
1-
1+
#272000
0%
0B
#273000
1%
1B
b11011101 4
b110010 :
b101 V
b101 T
b11101101 P
0-
1,
#274000
0%
0B
#275000
1%
1B
b11101101 4
b110011 :
b101 U
b11 V
b110 T
b11110100 P
01
0.
1-
#276000
0%
0B
#277000
1%
1B
b11110100 4
b110100 :
b100 V
b111 T
b1110111 P
11
10
0*
#278000
0%
0B
#279000
1%
1B
b1110111 4
b110101 :
b101 V
b1000 T
b1010010 P
01
0/
0,
#280000
0%
0B
#281000
1%
1B
b1010010 4
b110110 :
b11 U
b11 V
b0 T
0Q
0R
02
03
#282000
0%
0B
b11 (
1)
1N
1M
0L
1O
#283000
1%
1B
b11111111 4
1R
b11 S
13
#284000
0%
0B
0)
b111 6
bz (
0O
zN
zM
zL
#285000
1%
1B
b10 V
b0 S
1Q
12
b11111111 P
11
1/
1.
1,
1*
#286000
0%
0B
#287000
1%
1B
b110111 :
b11 V
b1 T
b1000000 P
01
00
0/
0.
0-
0,
0*
#288000
0%
0B
#289000
1%
1B
b1000000 4
b111000 :
b100 V
b10 T
b11000 P
1.
1-
0+
#290000
0%
0B
#291000
1%
1B
b11000 4
b111001 :
b100 U
b10 V
b11 T
b11101010 P
10
0-
1,
1+
1*
#292000
0%
0B
#293000
1%
1B
b11101010 4
b111010 :
b11 V
b100 T
b10000111 P
11
1/
0.
0,
0+
#294000
0%
0B
#295000
1%
1B
b10000111 4
b111011 :
b100 V
b101 T
b11011101 P
00
1.
1-
1+
#296000
0%
0B
#297000
1%
1B
b11011101 4
b111100 :
b101 U
b10 V
b110 T
b10111011 P
10
0/
1,
0+
#298000
0%
0B
#299000
1%
1B
b10111011 4
b111101 :
b11 V
b111 T
b11110100 P
01
00
1/
0.
1+
#300000
0%
0B
#301000
1%
1B
b11110100 4
b111110 :
b100 V
b1000 T
b1110111 P
11
10
0*
#302000
0%
0B
#303000
1%
1B
b1110111 4
b111111 :
b11 U
b10 V
b0 T
0Q
0R
02
03
#304000
0%
0B
b101 (
1)
1N
0M
1L
1O
#305000
1%
1B
b11111111 4
1R
b101 S
13
#306000
0%
0B
0)
b1000 6
bz (
0O
zN
zM
zL
#307000
1%
1B
b0 S
1Q
12
b11111111 P
1.
1*
#308000
0%
0B
#309000
1%
1B
b1000000 :
b11 V
b1 T
b1000000 P
01
00
0/
0.
0-
0,
0*
#310000
0%
0B
#311000
1%
1B
b1000000 4
b1000001 :
b100 V
b10 T
b11000 P
1.
1-
0+
#312000
0%
0B
#313000
1%
1B
b11000 4
b1000010 :
b100 U
b10 V
b11 T
b11101010 P
10
0-
1,
1+
1*
#314000
0%
0B
#315000
1%
1B
b11101010 4
b1000011 :
b11 V
b100 T
b10000111 P
11
1/
0.
0,
0+
#316000
0%
0B
#317000
1%
1B
b10000111 4
b1000100 :
b100 V
b101 T
b11011101 P
00
1.
1-
1+
#318000
0%
0B
#319000
1%
1B
b11011101 4
b1000101 :
b101 U
b10 V
b110 T
b10111011 P
10
0/
1,
0+
#320000
0%
0B
#321000
1%
1B
b10111011 4
b1000110 :
b11 V
b111 T
b11110100 P
01
00
1/
0.
1+
#322000
0%
0B
#323000
1%
1B
b11110100 4
b1000111 :
b100 V
b1000 T
b1110111 P
11
10
0*
#324000
0%
0B
#325000
1%
1B
b1110111 4
b1001000 :
b11 U
b10 V
b0 T
0Q
0R
02
03
#326000
0%
0B
b11 (
1)
1N
1M
0L
1O
#327000
1%
1B
b1001 4
1R
b11 S
13
#328000
0%
0B
0)
b1001 6
bz (
0O
zN
zM
zL
#329000
1%
1B
b1 V
b0 S
1Q
12
b1001 P
00
0/
1.
0-
0,
0+
#330000
0%
0B
#331000
1%
1B
b1001001 :
b10 V
b1 T
b11111111 P
10
1/
1-
1,
1+
1*
#332000
0%
0B
#333000
1%
1B
b11111111 4
b1001010 :
b11 V
b10 T
b1000000 P
01
00
0/
0.
0-
0,
0*
#334000
0%
0B
#335000
1%
1B
b1000000 4
b1001011 :
b100 U
b1 V
b11 T
b11101001 P
11
1.
1,
1*
#336000
0%
0B
#337000
1%
1B
b11101001 4
b1001100 :
b10 V
b100 T
b11101010 P
01
10
#338000
0%
0B
#339000
1%
1B
b11101010 4
b1001101 :
b11 V
b101 T
b10000111 P
11
1/
0.
0,
0+
#340000
0%
0B
#341000
1%
1B
b10000111 4
b1001110 :
b101 U
b1 V
b110 T
b11010011 P
0/
1-
1+
#342000
0%
0B
#343000
1%
1B
b11010011 4
b1001111 :
b10 V
b111 T
b10111011 P
1.
1,
0+
#344000
0%
0B
#345000
1%
1B
b10111011 4
b1010000 :
b11 V
b1000 T
b11110100 P
01
00
1/
0.
1+
#346000
0%
0B
#347000
1%
1B
b11110100 4
b1010001 :
b11 U
b1 V
b0 T
0Q
0R
02
03
#348000
0%
0B
b11 (
1)
1N
1M
0L
1O
#349000
1%
1B
b101000 4
1R
b11 S
13
#350000
0%
0B
0)
b1010 6
bz (
0O
zN
zM
zL
#351000
1%
1B
b0 V
b0 S
1Q
12
b101000 P
0/
1.
0-
0+
0*
#352000
0%
0B
#353000
1%
1B
b1010010 :
b1 V
b1 T
b1001 P
11
0,
#354000
0%
0B
#355000
1%
1B
b1001 4
b1010011 :
b10 V
b10 T
b11111111 P
10
1/
1-
1,
1+
1*
#356000
0%
0B
#357000
1%
1B
b11111111 4
b1010100 :
b100 U
b0 V
b11 T
b11110000 P
01
00
0/
0.
#358000
0%
0B
#359000
1%
1B
b11110000 4
b1010101 :
b1 V
b100 T
b11101001 P
11
1.
0-
#360000
0%
0B
#361000
1%
1B
b11101001 4
b1010110 :
b10 V
b101 T
b11101010 P
01
10
#362000
0%
0B
#363000
1%
1B
b11101010 4
b1010111 :
b101 U
b0 V
b110 T
b11010100 P
00
1/
0.
1-
0,
#364000
0%
0B
#365000
1%
1B
b11010100 4
b1011000 :
b1 V
b111 T
b11010011 P
11
10
0/
#366000
0%
0B
#367000
1%
1B
b11010011 4
b1011001 :
b10 V
b1000 T
b10111011 P
1.
1,
0+
#368000
0%
0B
#369000
1%
1B
b10111011 4
b1011010 :
b11 U
b0 V
b0 T
0Q
0R
02
03
#370000
0%
0B
b100 (
1)
0N
0M
1L
1O
#371000
1%
1B
b1000100 4
1R
b100 S
13
#372000
0%
0B
0)
b1011 6
bz (
0O
zN
zM
zL
#373000
1%
1B
b10 U
b0 S
1Q
12
b1000100 P
01
00
1/
0.
0-
0,
1+
0*
#374000
0%
0B
#375000
1%
1B
b1011011 :
b1 V
b1 T
b1100010 P
10
0/
1,
#376000
0%
0B
#377000
1%
1B
b1100010 4
b1011100 :
b10 V
b10 T
b1100110 P
1/
#378000
0%
0B
#379000
1%
1B
b1100110 4
b1011101 :
b11 U
b0 V
b11 T
b101000 P
00
0/
1.
0+
#380000
0%
0B
#381000
1%
1B
b101000 4
b1011110 :
b1 V
b100 T
b1001 P
11
0,
#382000
0%
0B
#383000
1%
1B
b1001 4
b1011111 :
b10 V
b101 T
b11111111 P
10
1/
1-
1,
1+
1*
#384000
0%
0B
#385000
1%
1B
b11111111 4
b1100000 :
b100 U
b0 V
b110 T
b11110000 P
01
00
0/
0.
#386000
0%
0B
#387000
1%
1B
b11110000 4
b1100001 :
b1 V
b111 T
b11101001 P
11
1.
0-
#388000
0%
0B
#389000
1%
1B
b11101001 4
b1100010 :
b10 V
b1000 T
b11101010 P
01
10
#390000
0%
0B
#391000
1%
1B
b11101010 4
b1100011 :
b10 U
b0 V
b0 T
0Q
0R
02
03
#392000
0%
0B
b100 (
1)
0N
0M
1L
1O
#393000
1%
1B
b1001001 4
1R
b100 S
13
#394000
0%
0B
0)
b1100 6
bz (
0O
zN
zM
zL
#395000
1%
1B
b1 U
b0 S
1Q
12
b1001001 P
11
00
0,
0*
#396000
0%
0B
#397000
1%
1B
b1100100 :
b1 V
b1 T
b10010011 P
10
0.
1-
0+
1*
#398000
0%
0B
#399000
1%
1B
b10010011 4
b1100101 :
b10 V
b10 T
b100010 P
01
0-
1,
0*
#400000
0%
0B
#401000
1%
1B
b100010 4
b1100110 :
b10 U
b0 V
b11 T
b1000100 P
00
1/
0,
1+
#402000
0%
0B
#403000
1%
1B
b1000100 4
b1100111 :
b1 V
b100 T
b1100010 P
10
0/
1,
#404000
0%
0B
#405000
1%
1B
b1100010 4
b1101000 :
b10 V
b101 T
b1100110 P
1/
#406000
0%
0B
#407000
1%
1B
b1100110 4
b1101001 :
b11 U
b0 V
b110 T
b101000 P
00
0/
1.
0+
#408000
0%
0B
#409000
1%
1B
b101000 4
b1101010 :
b1 V
b111 T
b1001 P
11
0,
#410000
0%
0B
#411000
1%
1B
b1001 4
b1101011 :
b10 V
b1000 T
b11111111 P
10
1/
1-
1,
1+
1*
#412000
0%
0B
#413000
1%
1B
b11111111 4
b1101100 :
b1 U
b0 V
b0 T
0Q
0R
02
03
#414000
0%
0B
b11 (
1)
1N
1M
0L
1O
#415000
1%
1B
b1001001 4
1R
b11 S
13
#416000
0%
0B
0)
b1101 6
bz (
0O
zN
zM
zL
#417000
1%
1B
b0 S
1Q
12
b1001001 P
00
0/
0-
0,
0*
#418000
0%
0B
#419000
1%
1B
b1101101 :
b1 V
b1 T
b10010011 P
10
0.
1-
0+
1*
#420000
0%
0B
#421000
1%
1B
b10010011 4
b1101110 :
b10 V
b10 T
b100010 P
01
0-
1,
0*
#422000
0%
0B
#423000
1%
1B
b100010 4
b1101111 :
b10 U
b0 V
b11 T
b1000100 P
00
1/
0,
1+
#424000
0%
0B
#425000
1%
1B
b1000100 4
b1110000 :
b1 V
b100 T
b1100010 P
10
0/
1,
#426000
0%
0B
#427000
1%
1B
b1100010 4
b1110001 :
b10 V
b101 T
b1100110 P
1/
#428000
0%
0B
#429000
1%
1B
b1100110 4
b1110010 :
b11 U
b0 V
b110 T
b101000 P
00
0/
1.
0+
#430000
0%
0B
#431000
1%
1B
b101000 4
b1110011 :
b1 V
b111 T
b1001 P
11
0,
#432000
0%
0B
#433000
1%
1B
b1001 4
b1110100 :
b10 V
b1000 T
b11111111 P
10
1/
1-
1,
1+
1*
#434000
0%
0B
#435000
1%
1B
b11111111 4
b1110101 :
b1 U
b0 V
b0 T
0Q
0R
02
03
#436000
0%
0B
b100 (
1)
0N
0M
1L
1O
#437000
1%
1B
b100000 4
1R
b100 S
13
#438000
0%
0B
0)
b1110 6
bz (
0O
zN
zM
zL
#439000
1%
1B
b0 U
b0 S
1Q
12
b100000 P
01
00
0/
0.
0-
0+
0*
#440000
0%
0B
#441000
1%
1B
b1110110 :
b1 V
b1 T
b1010111 P
11
10
1/
1-
0,
1+
#442000
0%
0B
#443000
1%
1B
b1010111 4
b1110111 :
b10 V
b10 T
b110000 P
01
00
0/
1,
0+
#444000
0%
0B
#445000
1%
1B
b110000 4
b1111000 :
b1 U
b0 V
b11 T
b1001001 P
11
1.
0-
0,
1+
#446000
0%
0B
#447000
1%
1B
b1001001 4
b1111001 :
b1 V
b100 T
b10010011 P
10
0.
1-
0+
1*
#448000
0%
0B
#449000
1%
1B
b10010011 4
b1111010 :
b10 V
b101 T
b100010 P
01
0-
1,
0*
#450000
0%
0B
#451000
1%
1B
b100010 4
b1111011 :
b10 U
b0 V
b110 T
b1000100 P
00
1/
0,
1+
#452000
0%
0B
#453000
1%
1B
b1000100 4
b1111100 :
b1 V
b111 T
b1100010 P
10
0/
1,
#454000
0%
0B
#455000
1%
1B
b1100010 4
b1111101 :
b10 V
b1000 T
b1100110 P
1/
#456000
0%
0B
#457000
1%
1B
b1100110 4
b1111110 :
b0 U
b0 V
b0 T
0Q
0R
02
03
#458000
0%
0B
b1 (
1)
b0 7
1N
0M
0L
1O
#459000
1%
1B
1R
b1 S
13
#460000
0%
0B
b100000 '
bz (
0)
b1 7
zN
zM
zL
0K
0J
0I
0H
0G
1F
0E
0D
0O
#461000
1%
1B
b1 V
#462000
0%
0B
b1010111 '
b10 7
1K
1J
1I
1G
0F
1E
#463000
1%
1B
b10 V
#464000
0%
0B
b110000 '
b11 7
0K
0J
0I
1F
0E
#465000
1%
1B
b11 V
#466000
0%
0B
b11101011 '
b100 7
1K
1J
1H
0G
1E
1D
#467000
1%
1B
b100 V
#468000
0%
0B
b10101111 '
b101 7
1I
0E
#469000
1%
1B
b101 V
#470000
0%
0B
b11101100 '
b110 7
0K
0J
1E
